INFSCI 2595 Fall 2022 Homework: 09
…
A glimpse of the train/test assessment results is shown to the screen
below. The result is a dataframe (tibble) with two columns. The
lambda column is the regularization strength and
MSE_test is the MSE on the test set.

train_test_lasso_results %>% glimpse()

## Rows: 101
## Columns: 2
## $ lambda   <dbl> 0.001000000, 0.001148154, 0.001318257, 0.001513561, 0.0017378~
## $ MSE_test <dbl[,1]> <matrix[26 x 1]>

train_test_lasso_results

## # A tibble: 101 x 2
##     lambda MSE_test[,1]
##      <dbl>        <dbl>
##  1 0.001           19.7
##  2 0.00115         19.7
##  3 0.00132         19.7
##  4 0.00151         19.7
##  5 0.00174         19.6
##  6 0.00200         19.6
##  7 0.00229         19.6
##  8 0.00263         19.5
##  9 0.00302         19.4
## 10 0.00347         19.4
## # ... with 91 more rows
…
train_test_lasso_results %>% arrange(MSE_test)

## # A tibble: 101 x 2
##    lambda MSE_test[,1]
##     <dbl>        <dbl>
##  1 0.251          13.1
##  2 0.288          13.1
##  3 0.166          13.1
##  4 0.219          13.1
##  5 0.191          13.2
##  6 0.145          13.2
##  7 0.126          13.3
##  8 0.331          13.5
##  9 0.110          13.6
## 10 0.0955         13.8
## # ... with 91 more rows
…
