INFSCI 2595 Fall 2022 Homework: 03
…
example_data_path <- "hw03_example_binary_data.csv"

model_pred_df <- readr::read_csv(example_data_path, col_names = TRUE)

## 
## -- Column specification --------------------------------------------------------
## cols(
##   x = col_double(),
##   pred_prob = col_double(),
##   obs_class = col_character()
## )

model_pred_df

## # A tibble: 125 x 3
##         x pred_prob obs_class
##     <dbl>     <dbl> <chr>    
##  1 -0.457     0.417 non_event
##  2  0.426     0.224 non_event
##  3 -0.785     0.599 event    
##  4 -1.93      0.990 event    
##  5  2.25      0.861 event    
##  6  1.60      0.492 non_event
##  7 -1.87      0.988 event    
##  8 -0.161     0.307 non_event
##  9  0.556     0.223 non_event
## 10  0.348     0.227 non_event
## # ... with 115 more rows
…
At the default threshold, model 2 has the highest average true positive rate and model 7 has the lowest average false negative rate.

5e)

In order to visualize the ROC curve we need to understand how the resample hold-out test predictions are stored within the caret model objects. By default, hold-out test set predictions are not retained, in order to conserve memory. However, the ctrl_roc object set savePredictions = TRUE which overrides the default behavior and stores each resample test-set predictions.

The predictions are contained with the $pred field of the caret model object. The code chunk below displays the first few rows of the predictions for the mod_1_roc result for you. Note that the code chunk below is not evaluated by default. When you execute the code chunk below, you will see 7 columns. The column obs is the observed outcome and the column event is the predicted probability of the event. The pred column is the model classified outcome based on the default threshold of 50%. The rowIndex is the row from the original data set and serves to identify the row correctly. The Resample column tells us which resample fold the test point was associated with.

mod_1_roc$pred %>% tibble::as_tibble()

## # A tibble: 155 x 7
##    pred      obs       event non_event rowIndex parameter Resample
##    <fct>     <fct>     <dbl>     <dbl>    <int> <chr>     <chr>   
##  1 non_event non_event 0.249     0.751        8 none      Fold1   
##  2 non_event non_event 0.175     0.825       12 none      Fold1   
##  3 non_event non_event 0.131     0.869       13 none      Fold1   
##  4 event     event     0.785     0.215       21 none      Fold1   
##  5 non_event event     0.285     0.715       27 none      Fold1   
##  6 non_event non_event 0.442     0.558       39 none      Fold1   
##  7 non_event non_event 0.435     0.565       40 none      Fold1   
##  8 event     event     0.800     0.200       43 none      Fold1   
##  9 event     non_event 0.698     0.302       48 none      Fold1   
## 10 non_event event     0.384     0.616       52 none      Fold1   
## # ... with 145 more rows

The ROC curve is calculated by comparing the model predicted probability to all possible thresholds to create many different classifications. Those different classifications are used to calculate many different confusion matrices. Thus, the columns of primary interest in the prediction object displayed above are the obs and event columns.

You manually created 3 points on the ROC curve previously in this assignment. Do NOT worry, you do NOT need to repeat those actions here! Instead you will use the roc_curve() function from the yardstick package to create the ROC curve data for you. The roc_curve() function has three primary arguments. The first is a data object which contains the predictions in a tidy format. The second is the name of the column that corresponds to the observed outcome (the truth or reference). The third is the name of the column in the data set that corresponds to the model predicted event probability.

Pipe the prediction data object for the mod_1_roc caret object to the roc_curve(). The obs column is the observed outcome and the event column is the model predicted event probability. Display the result to the screen to confirm the roc_curve() function worked. If it did the first few rows should correspond to very low threshold values.

Why does the sensitivity have values at or near 1 when the .threshold is so low?

SOLUTION

mod_1_roc$pred %>% roc_curve(truth = obs, estimate = event)

## # A tibble: 157 x 3
##    .threshold specificity sensitivity
##         <dbl>       <dbl>       <dbl>
##  1  -Inf           0            1    
##  2     0.0153      0            1    
##  3     0.0289      0            0.987
##  4     0.0364      0            0.973
##  5     0.0458      0            0.96 
##  6     0.0528      0.0125       0.96 
##  7     0.0559      0.0125       0.947
##  8     0.0625      0.025        0.947
##  9     0.0765      0.0375       0.947
## 10     0.0796      0.05         0.947
## # ... with 147 more rows
…
The code chunk below is also completed for you. It passes the caret model objects with the saved predictions to the compile_all_model_preds() function. The result is printed for you below so you can see the column names. Notice there is a new column model_name which stores the name of the model associated with the resample hold-out test set predictions. By default the code chunk below is not executed.

all_model_preds <- compile_all_model_preds(mod_1_roc, mod_2_roc, mod_3_roc, 
                                           mod_4_roc, mod_5_roc,
                                           mod_6_roc, mod_7_roc, mod_8_roc)

all_model_preds

## # A tibble: 1,240 x 4
##    obs       event Resample model_name
##    <fct>     <dbl> <chr>    <chr>     
##  1 non_event 0.249 Fold1    1         
##  2 non_event 0.175 Fold1    1         
##  3 non_event 0.131 Fold1    1         
##  4 event     0.785 Fold1    1         
##  5 event     0.285 Fold1    1         
##  6 non_event 0.442 Fold1    1         
##  7 non_event 0.435 Fold1    1         
##  8 event     0.800 Fold1    1         
##  9 non_event 0.698 Fold1    1         
## 10 event     0.384 Fold1    1         
## # ... with 1,230 more rows
…
