INFSCI 2595 Fall 2022 - MIDTERM
…
post_player_eval <- summary_post_df_all_empbayes %>% 
  mutate(prob_grt_67 = 1 - pbeta(q = .67, shape1 = anew, shape2 = bnew))

5b)

Identify the top 10 players based on the posterior
probability that their catch rate is greater than 0.67. What do these
players all have in common, besides the prob_grt_67
value?

SOLUTION

post_player_eval %>% arrange(desc(prob_grt_67))

## # A tibble: 849 x 9
##    player_id num_trials num_events  anew  bnew post_avg post_q05 post_~1 prob_~2
##        <dbl>      <dbl>      <dbl> <dbl> <dbl>    <dbl>    <dbl>   <dbl>   <dbl>
##  1       409        285        240  256.  52.8    0.829    0.792   0.863    1.00
##  2       353        429        342  358.  94.8    0.790    0.758   0.821    1.00
##  3       498        343        273  289.  77.8    0.788    0.752   0.822    1.00
##  4       467        235        192  208.  50.8    0.803    0.762   0.843    1.00
##  5       382        147        123  139.  31.8    0.813    0.762   0.860    1.00
##  6       493        179        146  162.  40.8    0.798    0.751   0.843    1.00
##  7       447        157        129  145.  35.8    0.802    0.751   0.848    1.00
##  8       278        122        102  118.  27.8    0.809    0.753   0.860    1.00
##  9       567        218        171  187.  54.8    0.773    0.728   0.816    1.00
## 10       302        340        258  274.  89.8    0.753    0.715   0.789    1.00
## # ... with 839 more rows, and abbreviated variable names 1: post_q95,
## #   2: prob_grt_67
…
5c)

Identify the 10 players with the lowest posterior probability
that their catch is greater than 0.67. What is the smallest number of
targets (trial size) associated with these 10 players?

SOLUTION

post_player_eval %>% arrange(prob_grt_67)

## # A tibble: 849 x 9
##    player_id num_trials num_events  anew  bnew post_avg post_q05 post_~1 prob_~2
##        <dbl>      <dbl>      <dbl> <dbl> <dbl>    <dbl>    <dbl>   <dbl>   <dbl>
##  1       545        207        106 122.  109.     0.528    0.474   0.582 4.26e-6
##  2       222         67         25  40.8  49.8    0.450    0.365   0.536 8.97e-6
##  3       837        113         52  67.8  68.8    0.496    0.426   0.566 1.46e-5
##  4       624        301        166 182.  143.     0.560    0.515   0.605 1.96e-5
##  5        61        181         93 109.   95.8    0.532    0.474   0.589 2.17e-5
##  6       435         61         23  38.8  45.8    0.458    0.370   0.548 3.30e-5
##  7       195        294        163 179.  139.     0.563    0.517   0.608 3.72e-5
##  8       615        180         95 111.   92.8    0.544    0.487   0.601 1.01e-4
##  9       559        214        117 133.  105.     0.559    0.506   0.611 1.90e-4
## 10       506         47         17  32.8  37.8    0.464    0.368   0.562 1.97e-4
## # ... with 839 more rows, and abbreviated variable names 1: post_q95,
## #   2: prob_grt_67
…
A player with a large sample size could mean that player is well
known, especially around the NFL. The team is interested in identifying
players that are not as well known, and yet seem to have high catch
rates.

Identify 10 players with the smallest sample sizes (number of
trials) while still having prob_grt_67 values greater than
0.75.

SOLUTION

post_player_eval %>% filter(prob_grt_67 > .75) %>% arrange(num_trials)

## # A tibble: 180 x 9
##    player_id num_trials num_events  anew  bnew post_avg post_q05 post_~1 prob_~2
##        <dbl>      <dbl>      <dbl> <dbl> <dbl>    <dbl>    <dbl>   <dbl>   <dbl>
##  1       701          5          5  20.8  7.83    0.726    0.583   0.852   0.761
##  2        81          7          7  22.8  7.83    0.744    0.608   0.862   0.830
##  3        88          7          7  22.8  7.83    0.744    0.608   0.862   0.830
##  4       308          8          8  23.8  7.83    0.752    0.619   0.867   0.858
##  5        41          9          9  24.8  7.83    0.760    0.630   0.871   0.882
##  6       606          9          8  23.8  8.83    0.729    0.595   0.847   0.784
##  7       264         10          9  24.8  8.83    0.737    0.606   0.852   0.816
##  8       321         10          9  24.8  8.83    0.737    0.606   0.852   0.816
##  9       376         10         10  25.8  7.83    0.767    0.640   0.876   0.902
## 10       476         10          9  24.8  8.83    0.737    0.606   0.852   0.816
## # ... with 170 more rows, and abbreviated variable names 1: post_q95,
## #   2: prob_grt_67
…
